ESS330 Lab 3
…
censusdata <- read_csv("https://www2.census.gov/programs-surveys/popest/datasets/2020-2023/counties/totals/co-est2023-alldata.csv")

Rows: 3195 Columns: 67
── Column specification ────────────────────────────────────────────────────────
Delimiter: ","
chr  (5): SUMLEV, STATE, COUNTY, STNAME, CTYNAME
dbl (62): REGION, DIVISION, ESTIMATESBASE2020, POPESTIMATE2020, POPESTIMATE2...

ℹ Use `spec()` to retrieve the full column specification for this data.
ℹ Specify the column types or set `show_col_types = FALSE` to quiet this message.

print(censusdata)

# A tibble: 3,195 × 67
   SUMLEV REGION DIVISION STATE COUNTY STNAME  CTYNAME         ESTIMATESBASE2020
   <chr>   <dbl>    <dbl> <chr> <chr>  <chr>   <chr>                       <dbl>
 1 040         3        6 01    000    Alabama Alabama                   5024294
 2 050         3        6 01    001    Alabama Autauga County              58809
 3 050         3        6 01    003    Alabama Baldwin County             231768
 4 050         3        6 01    005    Alabama Barbour County              25229
 5 050         3        6 01    007    Alabama Bibb County                 22301
 6 050         3        6 01    009    Alabama Blount County               59130
 7 050         3        6 01    011    Alabama Bullock County              10360
 8 050         3        6 01    013    Alabama Butler County               19046
 9 050         3        6 01    015    Alabama Calhoun County             116441
10 050         3        6 01    017    Alabama Chambers County             34772
# ℹ 3,185 more rows
# ℹ 59 more variables: POPESTIMATE2020 <dbl>, POPESTIMATE2021 <dbl>,
#   POPESTIMATE2022 <dbl>, POPESTIMATE2023 <dbl>, NPOPCHG2020 <dbl>,
#   NPOPCHG2021 <dbl>, NPOPCHG2022 <dbl>, NPOPCHG2023 <dbl>, BIRTHS2020 <dbl>,
#   BIRTHS2021 <dbl>, BIRTHS2022 <dbl>, BIRTHS2023 <dbl>, DEATHS2020 <dbl>,
#   DEATHS2021 <dbl>, DEATHS2022 <dbl>, DEATHS2023 <dbl>, NATURALCHG2020 <dbl>,
#   NATURALCHG2021 <dbl>, NATURALCHG2022 <dbl>, NATURALCHG2023 <dbl>, …
…
